{
  "main": {
    "name":"Solomon Talemwa",
    "occupation":"software developer",
    "description":"Welcome to my simple profile!",
    "image":"profilepic.jpg",
    "bio":"I like building stuff. I built this profile using React Js!",
    "contactmessage":"Get in touch!",
    "email": "solomontalemwa@react.com",
    "phone": "+256 7706 957",
    "address":{
      "street":"Kisaasi street",
      "city":"Kampala,",
      "state":"Uganda."
      
    }
    
  },
  "resume":{
    "skillmessage":"Skill sets",
    "education":[
      {
        "school":"University X",
        "degree":"degree",
        "graduated":"2030",
        "description":"Studied"
      },
      {
        "school":"High School",
        "degree":"Certificate",
        "graduated":"2020",
        "description":"Studied"
      }
    ],
    "work":[
      {
        "company":"Company X",
        "title":"Front-end designer in React Js! ",
        "years":"Present",
        "description":"UI designs and functionality"
      },
      {
        "company":"Company Z",
        "title":"Dev",
        "years":"March 2007 - February 2010",
        "description":"Software development"
      }
    ],
    "skills":[
      {
        "name":"Git",
        "level":"60%"
      },
      {
        "name":"React Js",
        "level":"30%"
      }
      
    ]
  },
  "portfolio":{
    "projects": [
      {
        "title":"Canadian Wanderlust",
        "category":"My Travel Blog for my post-university travels",
        "image":"canadian-wanderlust.jpg",
        "url":"https://www.canadianwanderlust.com"
      },
      {
        "title":"Fury Fighting Gear",
        "category":"(offline now) A fighting gear company I started",
        "image":"fury-fighting-gear.jpg",
        "url":"http://www.timbakerdev.com"
      },
      {
        "title":"Original Thai Food",
        "category":"Website I built for a restaurant I like in Thailand",
        "image":"original-thai-food.jpg",
        "url":"http://www.timbakerdev.com/originalthaifood.github.io"
      },
      {
        "title":"Resume Website",
        "category":"A React based resume website template",
        "image":"resume-website.jpg",
        "url":"http://www.timbakerdev.com"
      },
      {
        "title":"Smirkspace",
        "category":"(MVP Only) A React and Meteor based chat University project.",
        "image":"smirkspace.jpg",
        "url":"http://www.smirkspace.com"
      }
    ]
  },
  "testimonials":{
    "testimonials":[
      {
        "text":"Here you should write some nice things that someone has said about you. No lies though, employers can tell when you are lying.",
        "user":"Kareem Abdul Jabbar"
      },
      {
        "text":"That Tim Baker must be one of the most brilliant developers I've ever met! It is amazing that nobody has hired him yet. Hey you, you should hire this guy, he may be fresh out of University and have zero on the job experience but I am confident that he will be one of your best developers in no time!",
        "user":"Steve Wozniak... impersonator"
      }
    ]
  }
}
